[gd_scene load_steps=5 format=2]

[ext_resource path="res://Materials/Floor.tres" type="Material" id=1]
[ext_resource path="res://Character.tscn" type="PackedScene" id=2]
[ext_resource path="res://AllowTilting.gd" type="Script" id=3]

[sub_resource type="PlaneMesh" id=1]
size = Vector2( 4, 4 )

[node name="Level" type="Spatial"]

[node name="Camera" type="Camera" parent="."]
transform = Transform( -1.62921e-07, 0.5, -0.866025, 0, 0.866025, 0.5, 1, 8.14603e-08, -1.41093e-07, -7, 5, 0 )
fov = 50.0
size = 5.0

[node name="Floor" type="MeshInstance" parent="."]
transform = Transform( 5, 0, 0, 0, 1, 0, 0, 0, 5, 0, 0, 0 )
mesh = SubResource( 1 )
material/0 = ExtResource( 1 )

[node name="Character" parent="." instance=ExtResource( 2 )]

[node name="DirectionalLight" type="DirectionalLight" parent="."]
transform = Transform( 0.650019, 0.621491, -0.437293, 0, 0.575448, 0.817839, 0.759918, -0.53161, 0.374052, -5.44169, 2.46733, 0 )
shadow_enabled = true

[node name="AllowTilting" type="Control" parent="."]
anchor_left = 0.5
anchor_right = 0.5
margin_left = -54.5
margin_top = 32.0
margin_right = 54.5
margin_bottom = 74.0
script = ExtResource( 3 )
__meta__ = {
"_edit_use_anchors_": false
}

[node name="Button" type="Button" parent="AllowTilting"]
anchor_right = 1.0
anchor_bottom = 1.0
toggle_mode = true
text = "Allow tilting"
__meta__ = {
"_edit_use_anchors_": false
}
[connection signal="toggled" from="AllowTilting/Button" to="AllowTilting" method="_on_Button_toggled"]
